{
    "books": [
        {
            "id": 1,
            "title": "Learning GraphQL",
            "author": "John Doe",
            "description": null,
            "topic": "GraphQL",
            "url": "http://bestsellers.com/books/1"
        },
        {
            "id": 2,
            "title": "Rust programming language",
            "author": "Carl Leef",
            "description": null,
            "topic": "Rust",
            "url": "http://bestsellers.com/books/2"
        },
        {
            "id": 3,
            "title": "How to learn NodeJS",
            "author": "Phillipe Graham",
            "description": null,
            "topic": "Javascript",
            "url": "http://bestsellers.com/books/3"
        },
        {
            "id": 4,
            "title": "Angular in a nutshell",
            "author": "Erick Turner",
            "description": null,
            "topic": "Javascript",
            "url": "http://bestsellers.com/books/4"
        }
    ]
}