{
    "books": [
        {
            "id": 1,
            "title": "Learning GraphQL",
            "authors": [
                {
                    "name": "John",
                    "surname": "Doe",
                    "email": null
                },
                {
                    "name": "Leena",
                    "surname": "Hendrick",
                    "email": null
                },
                {
                    "name": "Paul",
                    "surname": "Graham",
                    "email": null
                }
            ],
            "description": null,
            "topic": "GraphQL",
            "url": "http://bestsellers.com/books/1"
        },
        {
            "id": 2,
            "title": "Rust programming language",
            "authors": [
                {
                    "name": "Carl",
                    "surname": "Leef",
                    "email": null
                }
            ],
            "description": null,
            "topic": "Rust",
            "url": "http://bestsellers.com/books/2"
        },
        {
            "id": 3,
            "title": "How to learn NodeJS",
            "authors": [
                {
                    "name": "Phillipe",
                    "surname": "Graham",
                    "email": null
                }
            ],
            "description": null,
            "topic": "Javascript",
            "url": "http://bestsellers.com/books/3"
        },
        {
            "id": 4,
            "title": "Angular in a nutshell",
            "authors": [
                {
                    "name": "Erick",
                    "surname": "Turner",
                    "email": null
                }
            ],
            "description": null,
            "topic": "Javascript",
            "url": "http://bestsellers.com/books/4"
        }
    ]
}